<svg xmlns="http://www.w3.org/2000/svg" xmlns:xlink="http://www.w3.org/1999/xlink" class="sys33" viewBox="0 0 80 80">
<path d="M6,32 L74,32 C74.5522847,32 75,32.4477153 75,33 L75,74 C75,74.5522847 74.5522847,75 74,75 L6,75 C5.44771525,75 5,74.5522847 5,74 L5,33 C5,32.4477153 5.44771525,32 6,32 Z" style="fill: none;stroke: #000;stroke-width: 5px"></path>
<line x1="19.5" y1="32" x2="19.5" y2="5" style="fill: none;stroke: #000;stroke-width: 5px" stroke-linecap="round"></line>
<line x1="60.5" y1="32" x2="60.5" y2="5" style="fill: none;stroke: #000;stroke-width: 5px" stroke-linecap="round"></line>
<path d="M30.852,61.264 C32.2453333,61.264 33.4223333,61.0366667 34.383,60.582 C35.3436667,60.1273333 36.0586667,59.5223333 36.528,58.767 C36.9973333,58.0116667 37.232,57.1866667 37.232,56.292 C37.232,55.1333333 36.8726667,54.1616667 36.154,53.377 C35.4353333,52.5923333 34.4013333,52.09 33.052,51.87 L33.052,51.87 L36.528,47.91 L36.528,45.6 L25.748,45.6 L25.748,48.46 L32.304,48.46 L29.136,52.046 L29.136,54.4 L30.764,54.4 C32.6853333,54.4 33.646,55.0306667 33.646,56.292 C33.646,56.9226667 33.3893333,57.4103333 32.876,57.755 C32.3626667,58.0996667 31.6586667,58.272 30.764,58.272 C29.9573333,58.272 29.169,58.151 28.399,57.909 C27.629,57.667 26.9506667,57.326 26.364,56.886 L26.364,56.886 L24.978,59.614 C25.7113333,60.142 26.6023333,60.549 27.651,60.835 C28.6996667,61.121 29.7666667,61.264 30.852,61.264 Z M40.5691186,61.176 C41.1704519,61.176 41.6764519,60.9706667 42.0871186,60.56 C42.4977852,60.1493333 42.7031186,59.636 42.7031186,59.02 C42.7031186,58.3893333 42.4977852,57.8796667 42.0871186,57.491 C41.6764519,57.1023333 41.1704519,56.908 40.5691186,56.908 C39.9677852,56.908 39.4617852,57.1023333 39.0511186,57.491 C38.6404519,57.8796667 38.4351186,58.3893333 38.4351186,59.02 C38.4351186,59.636 38.6404519,60.1493333 39.0511186,60.56 C39.4617852,60.9706667 39.9677852,61.176 40.5691186,61.176 Z M49.852,61.264 C51.2453333,61.264 52.4223333,61.0366667 53.383,60.582 C54.3436667,60.1273333 55.0586667,59.5223333 55.528,58.767 C55.9973333,58.0116667 56.232,57.1866667 56.232,56.292 C56.232,55.1333333 55.8726667,54.1616667 55.154,53.377 C54.4353333,52.5923333 53.4013333,52.09 52.052,51.87 L52.052,51.87 L55.528,47.91 L55.528,45.6 L44.748,45.6 L44.748,48.46 L51.304,48.46 L48.136,52.046 L48.136,54.4 L49.764,54.4 C51.6853333,54.4 52.646,55.0306667 52.646,56.292 C52.646,56.9226667 52.3893333,57.4103333 51.876,57.755 C51.3626667,58.0996667 50.6586667,58.272 49.764,58.272 C48.9573333,58.272 48.169,58.151 47.399,57.909 C46.629,57.667 45.9506667,57.326 45.364,56.886 L45.364,56.886 L43.978,59.614 C44.7113333,60.142 45.6023333,60.549 46.651,60.835 C47.6996667,61.121 48.7666667,61.264 49.852,61.264 Z" style="fill: #000" fill-rule="nonzero"></path>
</svg>