<svg xmlns="http://www.w3.org/2000/svg" xmlns:xlink="http://www.w3.org/1999/xlink" class="shedule" viewBox="0 0 80 80">
<path d="M51.37,57.84c0,6.84-4.9,12.38-10.93,12.38S29.5,64.67,29.5,57.84" transform="translate(0)" style="fill: none;stroke: #010101;stroke-width: 5px"></path>
<path d="M40.44,9.79c11,0,20,8.7,21.19,19.89l3.45,16.59,3.78,13H12l3.95-13,3.39-17.44C20.89,18.06,29.74,9.79,40.44,9.79Z" transform="translate(0)" style="fill: none;stroke: #010101;stroke-linejoin: round;stroke-width: 5px"></path>
<path d="M16.28,11.23A42.24,42.24,0,0,0,8,30.28L7.78,31.65h0" transform="translate(0)" style="fill: none;stroke: #010101;stroke-linecap: round;stroke-width: 5px"></path>
<path d="M63.71,11.23A42.24,42.24,0,0,1,72,30.28l0.23,1.36h0" transform="translate(0)" style="fill: none;stroke: #010101;stroke-linecap: round;stroke-width: 5px"></path>
</svg>