<svg xmlns="http://www.w3.org/2000/svg" xmlns:xlink="http://www.w3.org/1999/xlink" viewBox="0 0 80 80">
	<path style="fill: none;stroke: #000;stroke-linecap: round;stroke-miterlimit: 10;stroke-width: 5px;" d="M61.996438,43.2766961 C61.996438,47.1278937 61.996438,52.9046901 61.996438,60.6070853 C62.095529,63.1030596 60.1137075,65 57.7355217,65 L22.2609163,65 C19.8827305,65 18,63.1030596 18,60.7069243 L18,7.29307568 C18,4.89694042 19.8827305,3 22.2609163,3 C30.7599696,3 37.1342596,3 41.3837862,3"></path>
    <path style="fill: none;stroke: #000;stroke-linecap: round;stroke-miterlimit: 10;stroke-width: 3px;" d="M35,66 L35,73.3982301 C35,75.3451327 33.3918919,77 31.5,77 C29.6081081,77 28,75.3451327 28,73.3982301 L28,66"></path>
    <line style="fill: none;stroke: #000;stroke-linecap: round;stroke-miterlimit: 10;stroke-width: 3px;" x1="35" y1="71.5" x2="22" y2="71.5"></line>
    <path style="fill: none;stroke: #000;stroke-linecap: round;stroke-miterlimit: 10;stroke-width: 3px;" d="M46,66 L46,73.3982301 C46,75.3451327 47.6081081,77 49.5,77 C51.3918919,77 53,75.3451327 53,73.3982301 L53,66"></path>
    <line style="fill: none;stroke: #000;stroke-linecap: round;stroke-miterlimit: 10;stroke-width: 3px;" x1="46" y1="71.5" x2="60" y2="71.5"></line>
    <path style="fill: none;stroke: #000;stroke-linecap: round;stroke-miterlimit: 10;stroke-width: 3px;stroke-linejoin: round" d="M43.0000327,11.48388 L48.6040906,22.7437445 L61.1036529,24.5449437 L52.0592147,33.2867866 L54.1977102,45.6496327 L42.9999762,39.8116088 L31.8018759,45.649581 L33.9397279,33.2868071 L24.8963034,24.5449526 L37.3956566,22.7438277 L43.0000327,11.48388 Z"></path>
</svg>