<svg xmlns="http://www.w3.org/2000/svg" xmlns:xlink="http://www.w3.org/1999/xlink" class="cloudcon" viewBox="0 0 80 80">
<line x1="75.5" y1="65.24" x2="4.5" y2="65.63" style="fill: none;stroke: #010101;stroke-linecap: round;stroke-linejoin: round;stroke-width: 5px"></line>
<polyline points="10.61 52.53 25 31.8 42.54 52.53 58 24.61 73.07 52.53" style="fill: none;stroke: #010101;stroke-linecap: round;stroke-linejoin: round;stroke-width: 5px"></polyline>
<circle cx="25" cy="33" r="5.5" style="fill: #010101"></circle>
<circle cx="58" cy="27" r="5.5" style="fill: #010101"></circle>
<line x1="4.5" y1="14.35" x2="4.5" y2="65.65" style="fill: none;stroke: #010101;stroke-linecap: round;stroke-linejoin: round;stroke-width: 5px"></line>
</svg>