<svg xmlns="http://www.w3.org/2000/svg" xmlns:xlink="http://www.w3.org/1999/xlink" class="add" viewBox="0 0 80 80">
<line x1="40" y1="21" x2="40" y2="59" style="fill: none;stroke: #010101;stroke-linecap: round;stroke-width: 5px"></line>
<line x1="59" y1="40.3" x2="21" y2="40.3" style="fill: none;stroke: #010101;stroke-linecap: round;stroke-width: 5px"></line>
</svg>