<svg xmlns="http://www.w3.org/2000/svg" xmlns:xlink="http://www.w3.org/1999/xlink" class="pwr2" viewBox="0 0 80 80">
<rect style="fill: none;stroke: #000000;stroke-width: 3.8px" x="72.3" y="33.8224" width="3.8" height="11.4" rx="1.9"></rect>
<rect style="fill: none;stroke: #000000;stroke-width: 3.9px" x="3.9" y="24.9" width="68.4" height="30.4" rx="5.7"></rect>
<rect style="fill: #000000" fill-rule="nonzero" x="9.6" y="30.6" width="34.2" height="19" rx="3.8"></rect>
</svg>