<svg xmlns="http://www.w3.org/2000/svg" xmlns:xlink="http://www.w3.org/1999/xlink" class="cloudcon" viewBox="0 0 80 80">
<circle cx="40.7" cy="28.52" r="13.61" style="fill: none;stroke: #010101;stroke-width: 5px"></circle>
<path d="M60.59,57.17c6.68,2,10.91,5,10.91,8.33s-4.11,6.22-10.62,8.24A72.91,72.91,0,0,1,40,76.5a76,76,0,0,1-19-2.23c-7.6-2-12.5-5.19-12.5-8.77a5.46,5.46,0,0,1,2.11-4c2.16-2,5.85-3.63,10.57-4.85" transform="translate(0)" style="fill: none;stroke: #010101;stroke-linecap: round;stroke-width: 5px"></path>
<path d="M40.7,66.72l4.22-3.92Q55.33,53,58.62,48.5c6.45-8.85,7.1-15.83,7.1-21.26,0-13.12-11.22-23.74-25-23.74s-25,10.62-25,23.72c0,5.17,1.81,13,7.66,21.26Q27.36,54.18,40.7,66.72Z" transform="translate(0)" style="fill: none;stroke: #010101;stroke-width: 5px"></path>
</svg>